# Average of file raw_2
2.496250000e+03
2.524125000e+03
2.504250000e+03
2.535250000e+03
2.618625000e+03
2.283500000e+03
2.383000000e+03
2.509125000e+03
2.655375000e+03
2.454500000e+03
2.634125000e+03
2.503000000e+03
2.405750000e+03
2.355875000e+03
2.462750000e+03
2.495250000e+03
2.649875000e+03
2.661875000e+03
2.566625000e+03
2.406750000e+03
2.558750000e+03
2.452000000e+03
2.662500000e+03
2.577375000e+03
2.553750000e+03
2.372875000e+03
2.502500000e+03
2.420750000e+03
2.315375000e+03
2.285625000e+03
2.618125000e+03
2.352625000e+03
2.294750000e+03
2.418125000e+03
2.509875000e+03
2.481375000e+03
2.524000000e+03
2.361750000e+03
2.408250000e+03
2.601250000e+03
2.411000000e+03
2.442750000e+03
2.460625000e+03
2.435125000e+03
2.423750000e+03
2.523750000e+03
2.254250000e+03
2.276250000e+03
2.612625000e+03
2.681000000e+03
2.560500000e+03
2.504625000e+03
2.395375000e+03
2.627625000e+03
2.504875000e+03
2.419000000e+03
2.382750000e+03
2.504250000e+03
2.611125000e+03
2.357375000e+03
2.436375000e+03
2.511500000e+03
2.561750000e+03
2.573625000e+03
2.408500000e+03
2.356875000e+03
2.738125000e+03
2.636625000e+03
2.507625000e+03
2.685000000e+03
2.616125000e+03
2.424750000e+03
2.507375000e+03
2.410875000e+03
2.668500000e+03
2.544125000e+03
2.600125000e+03
2.562750000e+03
2.648250000e+03
2.644375000e+03
2.621625000e+03
2.354750000e+03
2.518750000e+03
2.496875000e+03
2.457750000e+03
2.665375000e+03
2.493500000e+03
2.484375000e+03
2.514125000e+03
2.582000000e+03
2.483625000e+03
2.537500000e+03
2.550000000e+03
2.449875000e+03
2.653750000e+03
2.471125000e+03
2.484500000e+03
2.319125000e+03
2.478875000e+03
2.431375000e+03
