# An array with shape: (100, 10)
1.594000000e+03  1.602000000e+03  1.642000000e+03  1.317000000e+03  1.418000000e+03  1.544000000e+03  1.787000000e+03  1.796000000e+03  1.995000000e+03  1.599000000e+03
1.372000000e+03  1.838000000e+03  1.068000000e+03  1.726000000e+03  1.905000000e+03  1.816000000e+03  1.913000000e+03  1.099000000e+03  1.831000000e+03  1.950000000e+03
1.464000000e+03  1.962000000e+03  1.255000000e+03  1.873000000e+03  1.942000000e+03  1.794000000e+03  1.042000000e+03  1.717000000e+03  1.476000000e+03  1.668000000e+03
1.649000000e+03  1.016000000e+03  1.728000000e+03  1.471000000e+03  1.082000000e+03  1.393000000e+03  1.029000000e+03  1.585000000e+03  1.650000000e+03  1.262000000e+03
1.754000000e+03  1.670000000e+03  1.072000000e+03  1.304000000e+03  1.338000000e+03  1.964000000e+03  1.249000000e+03  1.697000000e+03  1.903000000e+03  1.495000000e+03
1.760000000e+03  1.743000000e+03  1.878000000e+03  1.960000000e+03  1.904000000e+03  1.473000000e+03  1.347000000e+03  1.087000000e+03  1.422000000e+03  1.385000000e+03
1.200000000e+03  1.196000000e+03  1.703000000e+03  1.329000000e+03  1.665000000e+03  1.505000000e+03  1.215000000e+03  1.559000000e+03  1.025000000e+03  1.163000000e+03
1.984000000e+03  1.773000000e+03  1.189000000e+03  1.337000000e+03  1.311000000e+03  1.519000000e+03  1.448000000e+03  1.433000000e+03  1.605000000e+03  1.611000000e+03
1.529000000e+03  1.356000000e+03  1.646000000e+03  1.290000000e+03  1.734000000e+03  1.003000000e+03  1.236000000e+03  1.274000000e+03  1.848000000e+03  1.828000000e+03
1.166000000e+03  1.753000000e+03  1.645000000e+03  1.120000000e+03  1.919000000e+03  1.160000000e+03  1.803000000e+03  1.281000000e+03  1.425000000e+03  1.615000000e+03
1.057000000e+03  1.710000000e+03  1.296000000e+03  1.823000000e+03  1.804000000e+03  1.302000000e+03  1.940000000e+03  1.367000000e+03  1.524000000e+03  1.415000000e+03
1.174000000e+03  1.973000000e+03  1.398000000e+03  1.021000000e+03  1.893000000e+03  1.908000000e+03  1.213000000e+03  1.383000000e+03  1.543000000e+03  1.184000000e+03
1.912000000e+03  1.342000000e+03  1.179000000e+03  1.442000000e+03  1.148000000e+03  1.617000000e+03  1.225000000e+03  1.565000000e+03  1.661000000e+03  1.824000000e+03
1.910000000e+03  1.930000000e+03  1.634000000e+03  1.373000000e+03  1.793000000e+03  1.182000000e+03  1.388000000e+03  1.772000000e+03  1.880000000e+03  1.564000000e+03
1.027000000e+03  1.887000000e+03  1.259000000e+03  1.005000000e+03  1.076000000e+03  1.343000000e+03  1.994000000e+03  1.114000000e+03  1.581000000e+03  1.786000000e+03
1.143000000e+03  1.103000000e+03  1.451000000e+03  1.104000000e+03  1.001000000e+03  1.610000000e+03  1.746000000e+03  1.509000000e+03  1.222000000e+03  1.115000000e+03
1.719000000e+03  1.891000000e+03  1.557000000e+03  1.046000000e+03  1.777000000e+03  1.219000000e+03  1.173000000e+03  1.138000000e+03  1.132000000e+03  1.152000000e+03
1.410000000e+03  1.890000000e+03  1.300000000e+03  1.863000000e+03  1.412000000e+03  1.545000000e+03  1.992000000e+03  1.475000000e+03  1.441000000e+03  1.399000000e+03
1.571000000e+03  1.608000000e+03  1.483000000e+03  1.018000000e+03  1.778000000e+03  1.022000000e+03  1.407000000e+03  1.377000000e+03  1.335000000e+03  1.487000000e+03
1.434000000e+03  1.121000000e+03  1.321000000e+03  1.619000000e+03  1.569000000e+03  1.894000000e+03  1.837000000e+03  1.450000000e+03  1.269000000e+03  1.427000000e+03
1.648000000e+03  1.298000000e+03  1.116000000e+03  1.555000000e+03  1.460000000e+03  1.859000000e+03  1.853000000e+03  1.624000000e+03  1.201000000e+03  1.075000000e+03
1.641000000e+03  1.956000000e+03  1.271000000e+03  1.889000000e+03  1.921000000e+03  1.834000000e+03  1.126000000e+03  1.178000000e+03  1.223000000e+03  1.983000000e+03
1.712000000e+03  1.134000000e+03  1.810000000e+03  1.073000000e+03  1.635000000e+03  1.955000000e+03  1.366000000e+03  1.149000000e+03  1.762000000e+03  1.926000000e+03
1.032000000e+03  1.781000000e+03  1.133000000e+03  1.991000000e+03  1.112000000e+03  1.067000000e+03  1.319000000e+03  1.681000000e+03  1.470000000e+03  1.336000000e+03
1.817000000e+03  1.814000000e+03  1.504000000e+03  1.775000000e+03  1.711000000e+03  1.809000000e+03  1.144000000e+03  1.170000000e+03  1.999000000e+03  1.943000000e+03
1.821000000e+03  1.590000000e+03  1.489000000e+03  1.982000000e+03  1.993000000e+03  1.292000000e+03  1.159000000e+03  1.721000000e+03  1.272000000e+03  1.858000000e+03
1.542000000e+03  1.554000000e+03  1.331000000e+03  1.282000000e+03  1.387000000e+03  1.346000000e+03  1.841000000e+03  1.452000000e+03  1.056000000e+03  1.185000000e+03
1.606000000e+03  1.629000000e+03  1.354000000e+03  1.497000000e+03  1.701000000e+03  1.227000000e+03  1.124000000e+03  1.829000000e+03  1.782000000e+03  1.327000000e+03
1.123000000e+03  1.110000000e+03  1.742000000e+03  1.523000000e+03  1.117000000e+03  1.108000000e+03  1.248000000e+03  1.872000000e+03  1.228000000e+03  1.598000000e+03
1.093000000e+03  1.100000000e+03  1.744000000e+03  1.586000000e+03  1.131000000e+03  1.528000000e+03  1.980000000e+03  1.252000000e+03  1.157000000e+03  1.722000000e+03
1.517000000e+03  1.140000000e+03  1.779000000e+03  1.637000000e+03  1.194000000e+03  1.630000000e+03  1.946000000e+03  1.572000000e+03  1.305000000e+03  1.210000000e+03
1.958000000e+03  1.370000000e+03  1.462000000e+03  1.430000000e+03  1.854000000e+03  1.561000000e+03  1.510000000e+03  1.735000000e+03  1.039000000e+03  1.857000000e+03
1.437000000e+03  1.647000000e+03  1.202000000e+03  1.359000000e+03  1.736000000e+03  1.358000000e+03  1.521000000e+03  1.652000000e+03  1.096000000e+03  1.541000000e+03
1.090000000e+03  1.852000000e+03  1.640000000e+03  1.587000000e+03  1.048000000e+03  1.349000000e+03  1.077000000e+03  1.277000000e+03  1.941000000e+03  1.613000000e+03
1.769000000e+03  1.312000000e+03  1.694000000e+03  1.881000000e+03  1.390000000e+03  1.362000000e+03  1.552000000e+03  1.175000000e+03  1.808000000e+03  1.727000000e+03
1.052000000e+03  1.534000000e+03  1.548000000e+03  1.455000000e+03  1.207000000e+03  1.667000000e+03  1.172000000e+03  1.284000000e+03  1.472000000e+03  1.895000000e+03
1.659000000e+03  1.119000000e+03  1.491000000e+03  1.547000000e+03  1.977000000e+03  1.840000000e+03  1.231000000e+03  1.348000000e+03  1.518000000e+03  1.856000000e+03
1.301000000e+03  1.558000000e+03  1.187000000e+03  1.431000000e+03  1.019000000e+03  1.324000000e+03  1.218000000e+03  1.221000000e+03  1.105000000e+03  1.576000000e+03
1.909000000e+03  1.639000000e+03  1.238000000e+03  1.449000000e+03  1.256000000e+03  1.355000000e+03  1.020000000e+03  1.325000000e+03  1.707000000e+03  1.357000000e+03
1.944000000e+03  1.931000000e+03  1.147000000e+03  1.309000000e+03  1.935000000e+03  1.394000000e+03  1.047000000e+03  1.261000000e+03  1.788000000e+03  1.444000000e+03
1.785000000e+03  1.849000000e+03  1.502000000e+03  1.952000000e+03  1.847000000e+03  1.660000000e+03  1.369000000e+03  1.406000000e+03  1.622000000e+03  1.673000000e+03
1.344000000e+03  1.313000000e+03  1.842000000e+03  1.877000000e+03  1.280000000e+03  1.503000000e+03  1.101000000e+03  1.486000000e+03  1.815000000e+03  1.265000000e+03
1.423000000e+03  1.436000000e+03  1.307000000e+03  1.063000000e+03  1.457000000e+03  1.376000000e+03  1.375000000e+03  1.618000000e+03  1.573000000e+03  1.480000000e+03
1.998000000e+03  1.308000000e+03  1.686000000e+03  1.987000000e+03  1.836000000e+03  1.153000000e+03  1.917000000e+03  1.156000000e+03  1.662000000e+03  1.204000000e+03
1.206000000e+03  1.537000000e+03  1.361000000e+03  1.106000000e+03  1.340000000e+03  1.306000000e+03  1.276000000e+03  1.988000000e+03  1.409000000e+03  1.759000000e+03
1.819000000e+03  1.902000000e+03  1.631000000e+03  1.996000000e+03  1.397000000e+03  1.240000000e+03  1.258000000e+03  1.927000000e+03  1.715000000e+03  1.171000000e+03
1.283000000e+03  1.915000000e+03  1.886000000e+03  1.975000000e+03  1.654000000e+03  1.835000000e+03  1.536000000e+03  1.085000000e+03  1.783000000e+03  1.830000000e+03
1.026000000e+03  1.212000000e+03  1.791000000e+03  1.807000000e+03  1.643000000e+03  1.714000000e+03  1.037000000e+03  1.162000000e+03  1.389000000e+03  1.739000000e+03
1.620000000e+03  1.378000000e+03  1.914000000e+03  1.911000000e+03  1.938000000e+03  1.601000000e+03  1.978000000e+03  1.716000000e+03  1.245000000e+03  1.723000000e+03
1.469000000e+03  1.000000000e+03  1.790000000e+03  1.906000000e+03  1.214000000e+03  1.961000000e+03  1.924000000e+03  1.289000000e+03  1.315000000e+03  1.738000000e+03
1.699000000e+03  1.514000000e+03  1.071000000e+03  1.061000000e+03  1.756000000e+03  1.513000000e+03  1.303000000e+03  1.420000000e+03  1.198000000e+03  1.750000000e+03
1.968000000e+03  1.439000000e+03  1.168000000e+03  1.180000000e+03  1.374000000e+03  1.845000000e+03  1.197000000e+03  1.183000000e+03  1.055000000e+03  1.009000000e+03
1.627000000e+03  1.684000000e+03  1.253000000e+03  1.730000000e+03  1.084000000e+03  1.260000000e+03  1.948000000e+03  1.689000000e+03  1.928000000e+03  1.247000000e+03
1.014000000e+03  1.696000000e+03  1.091000000e+03  1.088000000e+03  1.050000000e+03  1.976000000e+03  1.868000000e+03  1.176000000e+03  1.563000000e+03  1.263000000e+03
1.142000000e+03  1.588000000e+03  1.478000000e+03  1.069000000e+03  1.578000000e+03  1.540000000e+03  1.651000000e+03  1.626000000e+03  1.008000000e+03  1.081000000e+03
1.704000000e+03  1.653000000e+03  1.010000000e+03  1.074000000e+03  1.933000000e+03  1.812000000e+03  1.417000000e+03  1.718000000e+03  1.482000000e+03  1.551000000e+03
1.310000000e+03  1.065000000e+03  1.869000000e+03  1.527000000e+03  1.745000000e+03  1.416000000e+03  1.706000000e+03  1.862000000e+03  1.045000000e+03  1.799000000e+03
1.229000000e+03  1.596000000e+03  1.672000000e+03  1.127000000e+03  1.490000000e+03  1.040000000e+03  1.137000000e+03  1.997000000e+03  1.400000000e+03  1.811000000e+03
1.382000000e+03  1.556000000e+03  1.432000000e+03  1.380000000e+03  1.233000000e+03  1.083000000e+03  1.424000000e+03  1.508000000e+03  1.492000000e+03  1.193000000e+03
1.986000000e+03  1.167000000e+03  1.443000000e+03  1.784000000e+03  1.789000000e+03  1.939000000e+03  1.570000000e+03  1.532000000e+03  1.350000000e+03  1.363000000e+03
1.386000000e+03  1.270000000e+03  1.566000000e+03  1.291000000e+03  1.135000000e+03  1.844000000e+03  1.360000000e+03  1.663000000e+03  1.242000000e+03  1.682000000e+03
1.888000000e+03  1.293000000e+03  1.936000000e+03  1.237000000e+03  1.079000000e+03  1.041000000e+03  1.687000000e+03  1.698000000e+03  1.013000000e+03  1.806000000e+03
1.900000000e+03  1.465000000e+03  1.314000000e+03  1.365000000e+03  1.883000000e+03  1.795000000e+03  1.740000000e+03  1.459000000e+03  1.656000000e+03  1.496000000e+03
1.763000000e+03  1.028000000e+03  1.205000000e+03  1.268000000e+03  1.044000000e+03  1.257000000e+03  1.953000000e+03  1.102000000e+03  1.353000000e+03  1.034000000e+03
1.770000000e+03  1.633000000e+03  1.678000000e+03  1.657000000e+03  1.419000000e+03  1.150000000e+03  1.609000000e+03  1.438000000e+03  1.874000000e+03  1.191000000e+03
1.612000000e+03  1.461000000e+03  1.468000000e+03  1.488000000e+03  1.060000000e+03  1.843000000e+03  1.141000000e+03  1.725000000e+03  1.676000000e+03  1.405000000e+03
1.539000000e+03  1.535000000e+03  1.161000000e+03  1.139000000e+03  1.053000000e+03  1.884000000e+03  1.097000000e+03  1.086000000e+03  1.971000000e+03  1.603000000e+03
1.379000000e+03  1.589000000e+03  1.597000000e+03  1.776000000e+03  1.466000000e+03  1.951000000e+03  1.368000000e+03  1.526000000e+03  1.655000000e+03  1.733000000e+03
1.395000000e+03  1.720000000e+03  1.688000000e+03  1.826000000e+03  1.474000000e+03  1.435000000e+03  1.332000000e+03  1.664000000e+03  1.421000000e+03  1.098000000e+03
1.125000000e+03  1.553000000e+03  1.341000000e+03  1.981000000e+03  1.094000000e+03  1.192000000e+03  1.287000000e+03  1.391000000e+03  1.644000000e+03  1.275000000e+03
1.023000000e+03  1.866000000e+03  1.713000000e+03  1.165000000e+03  1.851000000e+03  1.107000000e+03  1.758000000e+03  1.511000000e+03  1.871000000e+03  1.724000000e+03
1.285000000e+03  1.129000000e+03  1.024000000e+03  1.990000000e+03  1.440000000e+03  1.592000000e+03  1.250000000e+03  1.600000000e+03  1.916000000e+03  1.146000000e+03
1.498000000e+03  1.111000000e+03  1.239000000e+03  1.932000000e+03  1.685000000e+03  1.113000000e+03  1.876000000e+03  1.209000000e+03  1.747000000e+03  1.531000000e+03
1.017000000e+03  1.580000000e+03  1.012000000e+03  1.855000000e+03  1.671000000e+03  1.224000000e+03  1.767000000e+03  1.278000000e+03  1.638000000e+03  1.145000000e+03
1.813000000e+03  1.154000000e+03  1.136000000e+03  1.741000000e+03  1.294000000e+03  1.737000000e+03  1.690000000e+03  1.320000000e+03  1.501000000e+03  1.965000000e+03
1.445000000e+03  1.286000000e+03  1.226000000e+03  1.267000000e+03  1.216000000e+03  1.560000000e+03  1.929000000e+03  1.582000000e+03  1.036000000e+03  1.477000000e+03
1.549000000e+03  1.875000000e+03  1.109000000e+03  1.506000000e+03  1.550000000e+03  1.220000000e+03  1.273000000e+03  1.729000000e+03  1.827000000e+03  1.792000000e+03
1.516000000e+03  1.500000000e+03  1.691000000e+03  1.266000000e+03  1.985000000e+03  1.562000000e+03  1.352000000e+03  1.901000000e+03  1.898000000e+03  1.768000000e+03
1.243000000e+03  1.164000000e+03  1.241000000e+03  1.235000000e+03  1.322000000e+03  1.731000000e+03  1.658000000e+03  1.254000000e+03  1.757000000e+03  1.748000000e+03
1.323000000e+03  1.860000000e+03  1.879000000e+03  1.195000000e+03  1.454000000e+03  1.595000000e+03  1.264000000e+03  1.426000000e+03  1.533000000e+03  1.683000000e+03
1.945000000e+03  1.118000000e+03  1.199000000e+03  1.033000000e+03  1.456000000e+03  1.345000000e+03  1.429000000e+03  1.967000000e+03  1.328000000e+03  1.616000000e+03
1.604000000e+03  1.458000000e+03  1.636000000e+03  1.208000000e+03  1.339000000e+03  1.761000000e+03  1.666000000e+03  1.128000000e+03  1.066000000e+03  1.467000000e+03
1.885000000e+03  1.937000000e+03  1.800000000e+03  1.623000000e+03  1.882000000e+03  1.188000000e+03  1.211000000e+03  1.525000000e+03  1.825000000e+03  1.584000000e+03
1.865000000e+03  1.515000000e+03  1.326000000e+03  1.583000000e+03  1.628000000e+03  1.675000000e+03  1.006000000e+03  1.499000000e+03  1.035000000e+03  1.907000000e+03
1.316000000e+03  1.230000000e+03  1.371000000e+03  1.015000000e+03  1.392000000e+03  1.404000000e+03  1.679000000e+03  1.632000000e+03  1.574000000e+03  1.078000000e+03
1.625000000e+03  1.364000000e+03  1.333000000e+03  1.957000000e+03  1.614000000e+03  1.970000000e+03  1.092000000e+03  1.411000000e+03  1.203000000e+03  1.579000000e+03
1.512000000e+03  1.232000000e+03  1.575000000e+03  1.384000000e+03  1.974000000e+03  1.764000000e+03  1.969000000e+03  1.920000000e+03  1.530000000e+03  1.062000000e+03
1.954000000e+03  1.818000000e+03  1.453000000e+03  1.797000000e+03  1.089000000e+03  1.899000000e+03  1.925000000e+03  1.299000000e+03  1.481000000e+03  1.896000000e+03
1.755000000e+03  1.947000000e+03  1.330000000e+03  1.246000000e+03  1.493000000e+03  1.279000000e+03  1.043000000e+03  1.820000000e+03  1.850000000e+03  1.867000000e+03
1.030000000e+03  1.381000000e+03  1.538000000e+03  1.749000000e+03  1.403000000e+03  1.413000000e+03  1.765000000e+03  1.934000000e+03  1.064000000e+03  1.070000000e+03
1.591000000e+03  1.705000000e+03  1.780000000e+03  1.334000000e+03  1.979000000e+03  1.989000000e+03  1.054000000e+03  1.766000000e+03  1.805000000e+03  1.774000000e+03
1.751000000e+03  1.972000000e+03  1.692000000e+03  1.709000000e+03  1.190000000e+03  1.822000000e+03  1.414000000e+03  1.669000000e+03  1.485000000e+03  1.897000000e+03
1.966000000e+03  1.158000000e+03  1.004000000e+03  1.593000000e+03  1.051000000e+03  1.428000000e+03  1.771000000e+03  1.507000000e+03  1.546000000e+03  1.244000000e+03
1.752000000e+03  1.122000000e+03  1.007000000e+03  1.234000000e+03  1.318000000e+03  1.702000000e+03  1.922000000e+03  1.038000000e+03  1.693000000e+03  1.568000000e+03
1.864000000e+03  1.577000000e+03  1.351000000e+03  1.607000000e+03  1.708000000e+03  1.177000000e+03  1.680000000e+03  1.479000000e+03  1.520000000e+03  1.832000000e+03
1.923000000e+03  1.949000000e+03  1.155000000e+03  1.861000000e+03  1.567000000e+03  1.918000000e+03  1.839000000e+03  1.169000000e+03  1.402000000e+03  1.011000000e+03
1.217000000e+03  1.080000000e+03  1.870000000e+03  1.408000000e+03  1.059000000e+03  1.963000000e+03  1.288000000e+03  1.463000000e+03  1.959000000e+03  1.049000000e+03
1.695000000e+03  1.295000000e+03  1.802000000e+03  1.494000000e+03  1.674000000e+03  1.801000000e+03  1.833000000e+03  1.031000000e+03  1.002000000e+03  1.484000000e+03
1.732000000e+03  1.058000000e+03  1.446000000e+03  1.396000000e+03  1.798000000e+03  1.621000000e+03  1.151000000e+03  1.297000000e+03  1.846000000e+03  1.095000000e+03
1.186000000e+03  1.181000000e+03  1.677000000e+03  1.892000000e+03  1.522000000e+03  1.447000000e+03  1.401000000e+03  1.700000000e+03  1.251000000e+03  1.130000000e+03
